simulation/qsim/PBL3.msim.vcd
$comment
	File created using the following command:
		vcd file PBL3.msim.vcd -direction
$end
$date
	Tue May 25 19:20:59 2021
$end
$version
	ModelSim Version 2020.1
$end
$timescale
	1ps
$end

$scope module circuito_principal_vlg_vec_tst $end
$var reg 1 ! cent25 $end
$var reg 1 " cent50 $end
$var reg 1 # clk $end
$var reg 1 $ codigoBCD $end
$var reg 1 % real1 $end
$var wire 1 & acumuladorr [3] $end
$var wire 1 ' acumuladorr [2] $end
$var wire 1 ( acumuladorr [1] $end
$var wire 1 ) acumuladorr [0] $end

$scope module i1 $end
$var wire 1 * gnd $end
$var wire 1 + vcc $end
$var wire 1 , unknown $end
$var tri1 1 - devclrn $end
$var tri1 1 . devpor $end
$var tri1 1 / devoe $end
$var wire 1 0 clk~combout $end
$var wire 1 1 cent25~combout $end
$var wire 1 2 cent50~combout $end
$var wire 1 3 real1~combout $end
$var wire 1 4 acum|acumulador~2_combout $end
$var wire 1 5 acum|acumulador~3_combout $end
$var wire 1 6 acum|acumulador [3] $end
$var wire 1 7 acum|acumulador [2] $end
$var wire 1 8 acum|acumulador [1] $end
$var wire 1 9 acum|acumulador [0] $end
$upscope $end
$upscope $end
$enddefinitions $end
#0
$dumpvars
0!
0"
0#
x$
0%
0)
0(
0'
0&
0*
1+
x,
1-
1.
1/
00
01
02
03
14
05
09
08
07
06
$end
#10000
1!
11
15
04
05
#20000
1#
10
19
1)
#40000
0!
0#
01
00
14
#50000
1"
12
15
04
05
#60000
1#
10
18
14
1(
15
#70000
0"
02
05
#80000
0#
00
#90000
1%
13
15
#100000
1#
10
17
1'
#110000
0%
03
05
#120000
0#
00
#130000
1!
11
15
#140000
1#
10
16
07
08
09
04
1&
0'
0(
0)
05
#150000
0!
01
14
#160000
0#
00
#180000
1#
10
#200000
0#
00
#220000
1#
10
#240000
0#
00
#260000
1#
10
#280000
0#
00
#300000
1#
10
#320000
0#
00
#340000
1#
10
#360000
0#
00
#380000
1#
10
#400000
0#
00
#420000
1#
10
#440000
0#
00
#460000
1#
10
#480000
0#
00
#500000
1#
10
#520000
0#
00
#540000
1#
10
#560000
0#
00
#580000
1#
10
#600000
0#
00
#620000
1#
10
#640000
0#
00
#660000
1#
10
#680000
0#
00
#700000
1#
10
#720000
0#
00
#740000
1#
10
#760000
0#
00
#780000
1#
10
#800000
0#
00
#820000
1#
10
#840000
0#
00
#860000
1#
10
#880000
0#
00
#900000
1#
10
#920000
0#
00
#940000
1#
10
#960000
0#
00
#980000
1#
10
