simulation/qsim/problema3.msim.vcd
$comment
	File created using the following command:
		vcd file problema3.msim.vcd -direction
$end
$date
	Mon Jun 21 22:49:03 2021
$end
$version
	ModelSim Version 2020.1
$end
$timescale
	1ps
$end

$scope module circuito_principal_vlg_vec_tst $end
$var reg 1 ! clk $end
$var reg 2 " moedas [1:0] $end
$var reg 4 # tecla [3:0] $end
$var wire 1 $ codigo [3] $end
$var wire 1 % codigo [2] $end
$var wire 1 & codigo [1] $end
$var wire 1 ' codigo [0] $end
$var wire 1 ( devolver_moedas $end
$var wire 1 ) digito [1] $end
$var wire 1 * digito [0] $end
$var wire 1 + displays [3] $end
$var wire 1 , displays [2] $end
$var wire 1 - displays [1] $end
$var wire 1 . displays [0] $end
$var wire 1 / estados [1] $end
$var wire 1 0 estados [0] $end
$var wire 1 1 liberar $end
$var wire 1 2 produto_existe $end
$var wire 1 3 segmentosA [7] $end
$var wire 1 4 segmentosA [6] $end
$var wire 1 5 segmentosA [5] $end
$var wire 1 6 segmentosA [4] $end
$var wire 1 7 segmentosA [3] $end
$var wire 1 8 segmentosA [2] $end
$var wire 1 9 segmentosA [1] $end
$var wire 1 : segmentosA [0] $end
$var wire 1 ; segmentosB [7] $end
$var wire 1 < segmentosB [6] $end
$var wire 1 = segmentosB [5] $end
$var wire 1 > segmentosB [4] $end
$var wire 1 ? segmentosB [3] $end
$var wire 1 @ segmentosB [2] $end
$var wire 1 A segmentosB [1] $end
$var wire 1 B segmentosB [0] $end
$var wire 1 C segmentosC [7] $end
$var wire 1 D segmentosC [6] $end
$var wire 1 E segmentosC [5] $end
$var wire 1 F segmentosC [4] $end
$var wire 1 G segmentosC [3] $end
$var wire 1 H segmentosC [2] $end
$var wire 1 I segmentosC [1] $end
$var wire 1 J segmentosC [0] $end
$var wire 1 K segmentosD [7] $end
$var wire 1 L segmentosD [6] $end
$var wire 1 M segmentosD [5] $end
$var wire 1 N segmentosD [4] $end
$var wire 1 O segmentosD [3] $end
$var wire 1 P segmentosD [2] $end
$var wire 1 Q segmentosD [1] $end
$var wire 1 R segmentosD [0] $end
$var wire 1 S valor_correto $end

$scope module i1 $end
$var wire 1 T gnd $end
$var wire 1 U vcc $end
$var wire 1 V unknown $end
$var tri1 1 W devclrn $end
$var tri1 1 X devpor $end
$var tri1 1 Y devoe $end
$var wire 1 Z clk~combout $end
$var wire 1 [ teclas|always1~2_combout $end
$var wire 1 \ teclas|always1~3_combout $end
$var wire 1 ] teclas|Selector3~0_combout $end
$var wire 1 ^ teclas|Selector0~0_combout $end
$var wire 1 _ mux|contador[1]~1 $end
$var wire 1 ` mux|contador[1]~1COUT1_4 $end
$var wire 1 a comb_26|contador[2]~31 $end
$var wire 1 b comb_26|contador[2]~31COUT1_33 $end
$var wire 1 c comb_26|contador[3]~29 $end
$var wire 1 d comb_26|contador[4]~27 $end
$var wire 1 e comb_26|contador[4]~27COUT1_34 $end
$var wire 1 f comb_26|contador[5]~25 $end
$var wire 1 g comb_26|contador[5]~25COUT1_35 $end
$var wire 1 h comb_26|contador[6]~23 $end
$var wire 1 i comb_26|contador[6]~23COUT1_36 $end
$var wire 1 j comb_26|contador[7]~21 $end
$var wire 1 k comb_26|contador[7]~21COUT1_37 $end
$var wire 1 l comb_26|contador[8]~19 $end
$var wire 1 m comb_26|contador[9]~17 $end
$var wire 1 n comb_26|contador[9]~17COUT1_38 $end
$var wire 1 o comb_26|contador[10]~15 $end
$var wire 1 p comb_26|contador[10]~15COUT1_39 $end
$var wire 1 q comb_26|contador[11]~13 $end
$var wire 1 r comb_26|contador[11]~13COUT1_40 $end
$var wire 1 s comb_26|contador[12]~11 $end
$var wire 1 t comb_26|contador[12]~11COUT1_41 $end
$var wire 1 u comb_26|contador[13]~9 $end
$var wire 1 v comb_26|contador[14]~7 $end
$var wire 1 w comb_26|contador[14]~7COUT1_42 $end
$var wire 1 x comb_26|contador[15]~5 $end
$var wire 1 y comb_26|contador[15]~5COUT1_43 $end
$var wire 1 z comb_26|contador[16]~3 $end
$var wire 1 { comb_26|contador[16]~3COUT1_44 $end
$var wire 1 | teclas|state_next.01_101 $end
$var wire 1 } teclas|state_reg.01~regout $end
$var wire 1 ~ teclas|Selector2~0_combout $end
$var wire 1 !! teclas|state_next.10_90 $end
$var wire 1 "! teclas|state_reg.10~regout $end
$var wire 1 #! teclas|state_next.10~0_combout $end
$var wire 1 $! teclas|state_next.00_112~combout $end
$var wire 1 %! teclas|state_reg.espera~regout $end
$var wire 1 &! controle|Selector0~0_combout $end
$var wire 1 '! controle|estado_reg.q1~regout $end
$var wire 1 (! gerador|codigo[2]~0_combout $end
$var wire 1 )! gerador|Equal1~1_combout $end
$var wire 1 *! gerador|Equal1~0_combout $end
$var wire 1 +! controle|estado~1_combout $end
$var wire 1 ,! controle|estado~0_combout $end
$var wire 1 -! gerador|codigo[3]~1_combout $end
$var wire 1 .! gerador|codigo[3]~3_combout $end
$var wire 1 /! gerador|codigo[1]~2_combout $end
$var wire 1 0! controle_mem|WideOr0~0_combout $end
$var wire 1 1! controle|estado_reg.q2~regout $end
$var wire 1 2! ac|Selector2~0_combout $end
$var wire 1 3! ac|state_reg.0010~regout $end
$var wire 1 4! ac|Selector4~0_combout $end
$var wire 1 5! ac|state_reg.0100~regout $end
$var wire 1 6! ac|Selector5~0_combout $end
$var wire 1 7! ac|state_reg.0101~regout $end
$var wire 1 8! ac|Selector6~0_combout $end
$var wire 1 9! ac|state_reg.0110~regout $end
$var wire 1 :! ac|Selector7~0_combout $end
$var wire 1 ;! ac|state_reg.0111~regout $end
$var wire 1 <! ac|Selector8~0_combout $end
$var wire 1 =! ac|state_reg.1000~regout $end
$var wire 1 >! ac|Selector0~0_combout $end
$var wire 1 ?! ac|Selector0~1_combout $end
$var wire 1 @! ac|state_reg.0000~regout $end
$var wire 1 A! ac|state_reg.0001~regout $end
$var wire 1 B! ac|Selector3~0_combout $end
$var wire 1 C! ac|state_reg.0011~regout $end
$var wire 1 D! ac|WideOr2~0_combout $end
$var wire 1 E! controle_mem|Mux0~0_combout $end
$var wire 1 F! ac|WideOr1~0_combout $end
$var wire 1 G! controle_mem|Mux1~0_combout $end
$var wire 1 H! verifica|Equal0~1_combout $end
$var wire 1 I! ac|WideOr0~0_combout $end
$var wire 1 J! controle_mem|Mux2~0_combout $end
$var wire 1 K! controle_mem|Mux3~0_combout $end
$var wire 1 L! verifica|Equal0~0_combout $end
$var wire 1 M! verifica|Equal0~2_combout $end
$var wire 1 N! controle|estado_reg.q3~regout $end
$var wire 1 O! controle|Selector0~1_combout $end
$var wire 1 P! controle|estado_reg.q0~regout $end
$var wire 1 Q! liberar~0_combout $end
$var wire 1 R! display|decodB|Decoder0~0 $end
$var wire 1 S! display|decodB|WideOr6~0 $end
$var wire 1 T! display|Mux3~0 $end
$var wire 1 U! display|Mux11~0 $end
$var wire 1 V! always0~0_combout $end
$var wire 1 W! display|codigoC [3] $end
$var wire 1 X! display|codigoC [2] $end
$var wire 1 Y! display|codigoC [1] $end
$var wire 1 Z! display|codigoC [0] $end
$var wire 1 [! mux|displays [3] $end
$var wire 1 \! mux|displays [2] $end
$var wire 1 ]! mux|displays [1] $end
$var wire 1 ^! mux|displays [0] $end
$var wire 1 _! display|decodA|seg [7] $end
$var wire 1 `! display|decodA|seg [6] $end
$var wire 1 a! display|decodA|seg [5] $end
$var wire 1 b! display|decodA|seg [4] $end
$var wire 1 c! display|decodA|seg [3] $end
$var wire 1 d! display|decodA|seg [2] $end
$var wire 1 e! display|decodA|seg [1] $end
$var wire 1 f! display|decodA|seg [0] $end
$var wire 1 g! display|codigoD [3] $end
$var wire 1 h! display|codigoD [2] $end
$var wire 1 i! display|codigoD [1] $end
$var wire 1 j! display|codigoD [0] $end
$var wire 1 k! display|decodB|seg [7] $end
$var wire 1 l! display|decodB|seg [6] $end
$var wire 1 m! display|decodB|seg [5] $end
$var wire 1 n! display|decodB|seg [4] $end
$var wire 1 o! display|decodB|seg [3] $end
$var wire 1 p! display|decodB|seg [2] $end
$var wire 1 q! display|decodB|seg [1] $end
$var wire 1 r! display|decodB|seg [0] $end
$var wire 1 s! display|decodC|seg [7] $end
$var wire 1 t! display|decodC|seg [6] $end
$var wire 1 u! display|decodC|seg [5] $end
$var wire 1 v! display|decodC|seg [4] $end
$var wire 1 w! display|decodC|seg [3] $end
$var wire 1 x! display|decodC|seg [2] $end
$var wire 1 y! display|decodC|seg [1] $end
$var wire 1 z! display|decodC|seg [0] $end
$var wire 1 {! display|decodD|seg [7] $end
$var wire 1 |! display|decodD|seg [6] $end
$var wire 1 }! display|decodD|seg [5] $end
$var wire 1 ~! display|decodD|seg [4] $end
$var wire 1 !" display|decodD|seg [3] $end
$var wire 1 "" display|decodD|seg [2] $end
$var wire 1 #" display|decodD|seg [1] $end
$var wire 1 $" display|decodD|seg [0] $end
$var wire 1 %" display|codigoA [3] $end
$var wire 1 &" display|codigoA [2] $end
$var wire 1 '" display|codigoA [1] $end
$var wire 1 (" display|codigoA [0] $end
$var wire 1 )" display|codigoB [3] $end
$var wire 1 *" display|codigoB [2] $end
$var wire 1 +" display|codigoB [1] $end
$var wire 1 ," display|codigoB [0] $end
$var wire 1 -" mux|contador [2] $end
$var wire 1 ." mux|contador [1] $end
$var wire 1 /" mux|contador [0] $end
$var wire 1 0" comb_26|contador [28] $end
$var wire 1 1" comb_26|contador [27] $end
$var wire 1 2" comb_26|contador [26] $end
$var wire 1 3" comb_26|contador [25] $end
$var wire 1 4" comb_26|contador [24] $end
$var wire 1 5" comb_26|contador [23] $end
$var wire 1 6" comb_26|contador [22] $end
$var wire 1 7" comb_26|contador [21] $end
$var wire 1 8" comb_26|contador [20] $end
$var wire 1 9" comb_26|contador [19] $end
$var wire 1 :" comb_26|contador [18] $end
$var wire 1 ;" comb_26|contador [17] $end
$var wire 1 <" comb_26|contador [16] $end
$var wire 1 =" comb_26|contador [15] $end
$var wire 1 >" comb_26|contador [14] $end
$var wire 1 ?" comb_26|contador [13] $end
$var wire 1 @" comb_26|contador [12] $end
$var wire 1 A" comb_26|contador [11] $end
$var wire 1 B" comb_26|contador [10] $end
$var wire 1 C" comb_26|contador [9] $end
$var wire 1 D" comb_26|contador [8] $end
$var wire 1 E" comb_26|contador [7] $end
$var wire 1 F" comb_26|contador [6] $end
$var wire 1 G" comb_26|contador [5] $end
$var wire 1 H" comb_26|contador [4] $end
$var wire 1 I" comb_26|contador [3] $end
$var wire 1 J" comb_26|contador [2] $end
$var wire 1 K" comb_26|contador [1] $end
$var wire 1 L" comb_26|contador [0] $end
$var wire 1 M" tecla~combout [3] $end
$var wire 1 N" tecla~combout [2] $end
$var wire 1 O" tecla~combout [1] $end
$var wire 1 P" tecla~combout [0] $end
$var wire 1 Q" moedas~combout [1] $end
$var wire 1 R" moedas~combout [0] $end
$var wire 1 S" estado_anterior [1] $end
$var wire 1 T" estado_anterior [0] $end
$var wire 1 U" gerador|codigo [3] $end
$var wire 1 V" gerador|codigo [2] $end
$var wire 1 W" gerador|codigo [1] $end
$var wire 1 X" gerador|codigo [0] $end
$var wire 1 Y" teclas|digito [1] $end
$var wire 1 Z" teclas|digito [0] $end
$var wire 1 [" controle_mem|valor_preco [3] $end
$var wire 1 \" controle_mem|valor_preco [2] $end
$var wire 1 ]" controle_mem|valor_preco [1] $end
$var wire 1 ^" controle_mem|valor_preco [0] $end
$upscope $end
$upscope $end
$enddefinitions $end
#0
$dumpvars
0!
b0 "
b0 #
x'
x&
x%
x$
x(
x*
x)
x.
x-
x,
x+
x0
x/
x1
x2
0:
x9
x8
x7
x6
x5
x4
x3
xB
xA
x@
x?
x>
x=
x<
x;
xJ
xI
xH
xG
xF
xE
xD
xC
xR
xQ
xP
xO
xN
xM
xL
xK
xS
0T
1U
xV
1W
1X
1Y
xZ
x[
x\
x]
x^
x_
x`
xa
xb
xc
1d
xe
0f
xg
1h
xi
0j
xk
xl
xm
0n
xo
1p
xq
0r
xs
1t
0u
1v
xw
0x
xy
1z
x{
x|
0}
x~
x!!
0"!
x#!
x$!
0%!
x&!
0'!
x(!
x)!
x*!
x+!
x,!
x-!
x.!
x/!
x0!
01!
x2!
03!
x4!
05!
x6!
07!
x8!
09!
x:!
0;!
x<!
0=!
x>!
x?!
0@!
0A!
xB!
0C!
xD!
xE!
xF!
xG!
xH!
xI!
xJ!
xK!
xL!
xM!
0N!
xO!
0P!
xQ!
xR!
xS!
xT!
xU!
xV!
0Z!
0Y!
0X!
zW!
0^!
0]!
0\!
0[!
zf!
0e!
0d!
0c!
0b!
0a!
0`!
0_!
0j!
0i!
0h!
0g!
0r!
0q!
0p!
0o!
0n!
0m!
0l!
0k!
0z!
0y!
0x!
0w!
0v!
0u!
0t!
0s!
0$"
0#"
0""
0!"
0~!
0}!
0|!
0{!
0("
0'"
z&"
0%"
0,"
0+"
z*"
z)"
0/"
0."
0-"
zL"
zK"
0J"
0I"
0H"
0G"
0F"
0E"
0D"
0C"
0B"
0A"
0@"
0?"
0>"
0="
0<"
0;"
z:"
z9"
z8"
z7"
z6"
z5"
z4"
z3"
z2"
z1"
z0"
xP"
xO"
xN"
xM"
xR"
xQ"
xT"
xS"
xX"
xW"
xV"
xU"
xZ"
xY"
x^"
x]"
x\"
x["
$end
#1132
0N"
0O"
0P"
0R"
0Q"
#1163
0Z
0M"
#1191
1F!
#1520
0D!
#1635
1i
#1644
1{
#1647
0m
#1648
0q
1o
#1665
0`
#1669
0_
#1856
0k
1e
1b
#1861
1s
1a
#1865
1w
#1866
0y
#1961
0c
#2009
1l
#2049
0g
#2169
0R!
#2253
0~
#2287
0I!
#2610
0B!
#2660
0S!
#2672
1+!
#2752
02!
#2872
1Q!
#2909
1Z"
#2919
0Y"
#3013
1T!
#3017
0,!
#3089
03
05
#3090
0L
0P
08
#3096
0K
0R
#3103
06
#3117
07
#3124
04
#3129
0+
0,
#3130
0-
0@
#3134
0.
#3273
0#!
#3312
0>!
#3407
0U!
#3653
1&!
#3723
09
#3772
0>
#3911
0O!
#4177
0Q
#4179
0C
#4189
0O
#4264
0I
#4270
0E
0F
#4294
0M
#4299
0N
#4331
0D
#4357
0A
#4358
0J
#4371
0;
#4407
0H
#4410
0G
#4458
0B
#4471
0?
#4487
0=
#4489
0<
#4865
0/!
#5131
1(!
#5427
1*!
#5679
1)!
#6193
0:!
#6196
06!
#6357
04!
#6428
0[
#6459
08!
#6520
0?!
#6522
0<!
#7003
0)
#7275
00
#7347
0\
#7439
0!!
#7505
0/
#7719
01
#7730
1*
#8157
0-!
#8662
0.!
#8822
0^
#8827
0]
#10105
1$!
#10285
0|
#50000
b10 #
#51132
1O"
#55427
0*!
#55681
1[
#56600
1\
#58075
1^
#58080
1]
#58157
1-!
#58662
1.!
#59358
0$!
#59538
1|
#60957
1V"
#60962
0U"
#62274
0E!
#65128
0$
#67044
1%
#80000
1!
#81163
1Z
#83724
1/"
1}
1%!
1%"
1d!
1c!
1b!
1a!
1`!
1,"
1p!
1o!
1n!
1m!
1l!
1Y!
1g!
1x!
1w!
1v!
1u!
1t!
1""
1!"
1~!
1}!
1|!
#84832
0Z"
#84840
1Y"
#85891
1S!
#85971
0^
#85977
1~
#86129
0&!
#86660
1/!
#86785
0.!
#86813
15
#86814
18
1P
1L
#86827
16
#86841
17
#86848
14
#86854
1@
#86900
1!!
#87434
0|
#87496
1>
#87913
1O
#87994
1F
1E
#88018
1M
#88023
1N
#88055
1D
#88131
1H
#88134
1G
#88195
1?
#88211
1=
#88213
1<
#88909
0W"
#88919
1X"
#88924
1)
#89653
0*
#90182
00!
#90836
0K!
#90875
1G!
#91047
1J!
#92950
1'
#93171
0&
#95760
12
#95858
0^"
#95863
0["
#96394
0\"
#96398
1]"
#96903
1H!
#98158
1L!
#98180
0M!
#102313
0S
#160000
0!
#161163
0Z
#190000
b10 "
b11 "
#191132
1Q"
1R"
#195935
14!
#240000
b0 #
1!
#241132
0O"
#241163
1Z
#243724
0/"
1."
0}
1"!
1'!
15!
1@!
1P!
1e!
0d!
0c!
1_!
1q!
0p!
0m!
1k!
1y!
0v!
0u!
1s!
1#"
0""
0!"
1{!
1^!
#244840
0Y"
#245238
1I!
#245427
1*!
#245574
1&!
#245681
0[
#245977
0~
#246414
1<!
#246599
0T!
#246629
0&!
#246640
0\
#246741
1,!
#246786
0/!
#246813
13
#246814
08
0P
#246820
1K
#246841
07
#246854
0@
#246858
1.
#246900
0!!
#246943
1#!
#247163
0L!
#247447
19
#247717
0V!
#247901
1Q
#247903
1C
#247913
0O
#247988
1I
#247994
0F
0E
#248081
1A
#248095
1;
#248157
0-!
#248211
0=
#248924
0)
#250999
10
#252756
0(
#253231
1T"
0S"
#300000
b1 "
b0 "
#301132
0Q"
0R"
#306398
1>!
#306522
0<!
#320000
0!
#321163
0Z
#400000
1!
#401163
1Z
#403724
1/"
0"!
0'!
11!
0%"
0,"
0Y!
0g!
1Z!
1j!
0^!
1]!
#405177
0,!
#405389
1`
#405393
1_
#405580
0+!
#405891
0S!
#405977
1T!
#406153
1V!
#406853
0T"
#406854
1-
#406858
0.
#406908
0V!
#407089
1S"
#409435
00
#410413
1/
#480000
0!
#481163
0Z
#560000
1!
#561163
1Z
#563724
0/"
0."
1J"
01!
0P!
1("
0e!
1d!
1c!
0_!
1+"
1,"
0q!
1p!
1m!
0k!
0Z!
0y!
0t!
0s!
0j!
0#"
1""
1!"
0~!
0}!
0|!
0{!
1-"
0]!
1\!
#565177
1,!
#565389
0`
#565393
0_
#566386
1R!
#566396
1+!
#566629
1&!
#566741
0,!
#566813
03
#566814
18
1P
0L
#566820
0K
#566841
17
#566853
1,
1T"
#566854
1@
0-
#566997
0#!
#567447
09
#567717
1V!
#567901
0Q
#567903
0C
#567905
0S"
#567913
1O
#567988
0I
#568018
0M
#568023
0N
#568055
0D
#568081
0A
#568095
0;
#568211
1=
#568417
0T"
#569795
0V!
#571229
0/
#640000
0!
#641163
0Z
#720000
1!
#721163
1Z
#723724
1/"
1%"
0("
0b!
0a!
0`!
0+"
1r!
0p!
0o!
0n!
0m!
0l!
1Y!
1g!
1v!
1u!
1t!
1~!
1}!
1|!
0-"
0\!
1[!
#726384
1S!
#726386
0R!
#726813
05
#726814
1L
#726827
06
#726848
04
#726853
0,
1+
#726854
0@
#727496
0>
#727994
1F
1E
#728018
1M
#728023
1N
#728055
1D
#728182
1B
#728195
0?
#728211
0=
#728213
0<
#800000
0!
#801163
0Z
#880000
1!
#881163
1Z
#883724
0/"
1."
1e!
0d!
0c!
1b!
1a!
1`!
1_!
0r!
1q!
1o!
1n!
1l!
1k!
1y!
0v!
0u!
1s!
1#"
0""
0!"
1{!
1^!
0[!
#886813
15
13
#886814
08
0P
#886820
1K
#886827
16
#886841
07
#886848
14
#886853
0+
#886858
1.
#887447
19
#887496
1>
#887901
1Q
#887903
1C
#887913
0O
#887988
1I
#887994
0F
0E
#888081
1A
#888095
1;
#888182
0B
#888195
1?
#888213
1<
#960000
0!
#961163
0Z
